{
    "100": {
        "125": 4.09536,
        "250": 8.54148,
        "500": 11.97008,
        "750": 16.20764,
        "1000": 20.30932,
        "1500": 28.240920000000003,
        "2000": 35.93868,
        "2500": 43.472120000000004,
        "3000": 50.88864
    },
    "141": {
        "125": 4.07324,
        "250": 8.70264,
        "500": 12.24184,
        "750": 16.615280000000002,
        "1000": 20.856,
        "1500": 29.06884
    },
    "142": {
        "125": 4.07324,
        "250": 8.70264,
        "500": 12.24184,
        "750": 16.615280000000002,
        "1000": 20.856,
        "1500": 29.06884,
        "2000": 37.051
    },
    "143": {
        "125": 4.18384,
        "250": 9.08184,
        "500": 12.971800000000002,
        "750": 17.76236,
        "1000": 22.436,
        "1500": 31.555760000000003
    },
    "146": {
        "125": 4.07324,
        "250": 8.70264,
        "500": 12.24184,
        "750": 16.615280000000002,
        "1000": 20.856,
        "1500": 29.06884,
        "2000": 37.051
    },
    "310": {
        "125": 8.30448,
        "250": 17.496920000000003,
        "500": 24.616400000000002,
        "750": 33.99844,
        "1000": 43.159279999999995,
        "1500": 61.06068,
        "2000": 78.60816,
        "2500": 95.92496000000001,
        "3000": 113.07744,
        "3500": 130.10352,
        "4000": 147.03480000000002,
        "4500": 163.88392000000002,
        "5000": 180.673
    },
    "312": {
        "125": 8.74056,
        "250": 18.41648,
        "500": 25.912,
        "750": 35.787,
        "1000": 45.43132,
        "1500": 64.2744,
        "2000": 82.7446,
        "2500": 100.97464,
        "3000": 119.02772,
        "3500": 136.95124,
        "4000": 154.77364
    },
    "313": {
        "125": 8.30448,
        "250": 17.496920000000003,
        "500": 24.616400000000002,
        "750": 33.99844,
        "1000": 43.159279999999995,
        "1500": 61.06068,
        "2000": 78.60816,
        "2500": 95.92496000000001,
        "3000": 113.07744,
        "3500": 130.10352,
        "4000": 147.03480000000002,
        "4500": 163.88392000000002,
        "5000": 180.673
    },
    "318": {
        "125": 4.70208,
        "250": 9.530560000000001,
        "500": 12.403,
        "750": 16.539440000000003,
        "1000": 20.483120000000003,
        "1500": 28.221960000000003,
        "2000": 35.818599999999996,
        "2500": 43.38364,
        "3000": 50.970800000000004
    },
    "319": {
        "125": 5.043360000000001,
        "250": 10.298440000000001,
        "500": 13.660680000000001,
        "750": 18.4228,
        "1000": 22.97636,
        "1500": 31.68216,
        "2000": 40.03088,
        "2500": 48.13628,
        "3000": 56.06156000000001,
        "3500": 63.841480000000004
    },
    "320": {
        "125": 5.28352,
        "250": 10.8388,
        "500": 14.4886,
        "750": 19.629920000000002,
        "1000": 24.55952,
        "1500": 34.02056,
        "2000": 43.12768,
        "2500": 51.98832
    },
    "321": {
        "125": 6.03244,
        "250": 12.403,
        "500": 16.653200000000002,
        "750": 22.616120000000002,
        "1000": 28.345200000000002,
        "1500": 39.36096,
        "2000": 49.984880000000004,
        "2500": 60.33704,
        "3000": 70.49328
    },
    "330": {
        "125": 11.05052,
        "250": 22.99532,
        "500": 31.536800000000003,
        "750": 42.909639999999996,
        "1000": 53.893800000000006,
        "1500": 75.11004000000001,
        "2000": 95.67216,
        "2500": 115.78872,
        "3000": 135.57348000000002,
        "3500": 155.09912,
        "4000": 173.13008000000002,
        "4500": 189.06596000000002,
        "5000": 204.51204,
        "5500": 219.50308,
        "6000": 234.07384,
        "6500": 248.24960000000002,
        "7000": 262.05248
    },
    "332": {
        "125": 10.728200000000001,
        "250": 22.006240000000002,
        "500": 30.178,
        "750": 41.06104,
        "1000": 51.57436,
        "1500": 71.88052,
        "2000": 91.55468,
        "2500": 110.8054,
        "3000": 129.74012000000002,
        "3500": 148.42520000000002,
        "4000": 165.65352000000001,
        "4500": 180.84996,
        "5000": 195.56924,
        "5500": 209.84296000000003,
        "6000": 223.70588,
        "6500": 237.18328,
        "7000": 250.29412000000002
    },
    "333": {
        "125": 11.05052,
        "250": 22.99532,
        "500": 31.536800000000003,
        "750": 42.909639999999996,
        "1000": 53.893800000000006,
        "1500": 75.11004000000001,
        "2000": 95.67216,
        "2500": 115.78872,
        "3000": 135.57348000000002,
        "3500": 155.09912,
        "4000": 173.13008000000002,
        "4500": 189.06596000000002,
        "5000": 204.51204,
        "5500": 219.50308
    },
    "340": {
        "125": 13.2878,
        "250": 26.70832,
        "500": 34.93064,
        "750": 46.41408,
        "1000": 57.48672,
        "1500": 78.99683999999999,
        "2000": 100.14356,
        "2500": 121.22708,
        "3000": 142.40856,
        "3500": 163.78596000000002,
        "4000": 185.42248,
        "4500": 207.36236000000002,
        "5000": 229.62456,
        "5500": 250.17404000000002,
        "6000": 270.77092,
        "6500": 281.30004,
        "7000": 290.66312,
        "7500": 298.89176000000003,
        "8000": 306.0144,
        "8500": 312.05632
    },
    "342": {
        "125": 12.55152,
        "250": 25.2326,
        "500": 33.00620000000001,
        "750": 43.86712,
        "1000": 54.34568,
        "1500": 74.70872,
        "2000": 94.74944,
        "2500": 114.74592,
        "3000": 134.84668,
        "3500": 155.14652,
        "4000": 175.70548000000002,
        "4500": 196.56148000000002,
        "5000": 217.74928,
        "5500": 238.43148000000002,
        "6000": 255.71036,
        "6500": 265.51268,
        "7000": 274.1932,
        "7500": 281.78984
    },
    "343": {
        "125": 13.2878,
        "250": 26.70832,
        "500": 34.93064,
        "750": 46.41408,
        "1000": 57.48672,
        "1500": 78.99683999999999,
        "2000": 100.14356,
        "2500": 121.22708,
        "3000": 142.40856,
        "3500": 163.78596000000002,
        "4000": 185.42248,
        "4500": 207.36236000000002,
        "5000": 229.62456,
        "5500": 250.17404000000002,
        "6000": 270.77092,
        "6500": 281.30004,
        "7000": 290.66312
    },
    "345": {
        "125": 14.080960000000001,
        "250": 29.833560000000002,
        "500": 41.51292,
        "750": 56.96532,
        "1000": 71.98164,
        "1500": 101.18004,
        "2000": 129.65796,
        "2500": 157.65556,
        "3000": 185.3024,
        "3500": 212.68064,
        "4000": 239.844,
        "4500": 266.82724,
        "5000": 293.66196,
        "5500": 320.37028000000004,
        "6000": 346.96484000000004,
        "6500": 371.54648000000003,
        "7000": 393.73916,
        "7500": 415.57792000000006,
        "8000": 437.08804000000003,
        "8500": 458.28216000000003
    },
    "346": {
        "125": 15.098480000000002,
        "250": 31.694800000000004,
        "500": 44.40748000000001,
        "750": 61.18392000000001,
        "1000": 77.53692,
        "1500": 109.4308,
        "2000": 140.63580000000002,
        "2500": 171.38576,
        "3000": 201.80708,
        "3500": 231.98192,
        "4000": 261.96084,
        "4500": 291.77544,
        "5000": 321.45732,
        "5500": 351.42676,
        "6000": 376.26436000000007,
        "6500": 400.67536000000007,
        "7000": 424.6882,
        "7500": 448.33132
    },
    "380": {
        "125": 18.48916,
        "250": 37.970560000000006,
        "500": 55.68868,
        "750": 78.81040000000002,
        "1000": 101.78676000000002,
        "1500": 147.55620000000002,
        "2000": 193.2656,
        "2500": 239.01608000000002,
        "3000": 284.85188,
        "3500": 330.79196,
        "4000": 376.8458,
        "4500": 423.01340000000005,
        "5000": 469.29792000000003,
        "5500": 515.6993600000001,
        "6000": 562.21456,
        "6500": 608.35372,
        "7000": 642.9494,
        "7500": 676.7645600000001,
        "8000": 709.83712
    },
    "388": {
        "125": 18.48916,
        "250": 37.970560000000006,
        "500": 55.68868,
        "750": 78.81040000000002,
        "1000": 101.78676000000002,
        "1500": 147.55620000000002,
        "2000": 193.2656,
        "2500": 239.01608000000002,
        "3000": 284.85188,
        "3500": 330.79196,
        "4000": 376.8458,
        "4500": 423.01340000000005,
        "5000": 469.29792000000003,
        "5500": 515.6993600000001,
        "6000": 562.21456,
        "6500": 608.35372,
        "7000": 642.9494,
        "7500": 676.7645600000001,
        "8000": 709.83712
    },
    "703": {
        "125": 13.52796,
        "250": 27.04012,
        "500": 34.67468,
        "750": 45.82,
        "1000": 56.31120000000001,
        "1500": 75.99484,
        "2000": 94.50296,
        "2500": 112.18316,
        "3000": 129.22504,
        "3500": 145.74552000000003,
        "4000": 161.82992000000002,
        "4500": 177.53196000000003,
        "5000": 192.89904
    },
    "707": {
        "125": 13.52796,
        "250": 27.04012,
        "500": 34.67468,
        "750": 45.82,
        "1000": 56.31120000000001,
        "1500": 75.99484,
        "2000": 94.50296,
        "2500": 112.18316,
        "3000": 129.22504,
        "3500": 145.74552000000003,
        "4000": 161.82992000000002,
        "4500": 177.53196000000003,
        "5000": 192.89904
    },
    "717": {
        "125": 4.78108,
        "250": 9.86236,
        "500": 13.3826,
        "750": 17.78448,
        "1000": 22.085240000000002,
        "1500": 30.481360000000002,
        "2000": 38.58044
    },
    "721": {
        "125": 8.058,
        "250": 16.116,
        "500": 20.69168,
        "750": 27.37508,
        "1000": 33.68244,
        "1500": 45.560880000000004,
        "2000": 56.79468,
        "2500": 67.57976000000001,
        "3000": 78.02988
    },
    "722": {
        "125": 9.0692,
        "250": 18.615560000000002,
        "500": 24.91344,
        "750": 33.774080000000005,
        "1000": 42.27764,
        "1500": 58.59904,
        "2000": 74.31372,
        "2500": 89.62076,
        "3000": 104.61496000000001
    },
    "727": {
        "125": 9.0692,
        "250": 18.615560000000002,
        "500": 24.91344,
        "750": 33.774080000000005,
        "1000": 42.27764,
        "1500": 58.59904,
        "2000": 74.31372,
        "2500": 89.62076,
        "3000": 104.61496000000001
    },
    "731": {
        "125": 5.356199999999999,
        "250": 10.867239999999999,
        "500": 14.267400000000002,
        "750": 19.12748,
        "1000": 23.75372,
        "1500": 32.56064000000001,
        "2000": 40.966240000000006,
        "2500": 49.096920000000004,
        "3000": 57.02852000000001,
        "3500": 64.79264,
        "4000": 72.4272
    },
    "732": {
        "125": 5.618480000000001,
        "250": 11.71728,
        "500": 15.67992,
        "750": 21.25732,
        "1000": 26.61036,
        "1500": 36.883520000000004,
        "2000": 46.77432,
        "2500": 56.406,
        "3000": 65.84808,
        "3500": 75.13532000000001,
        "4000": 84.29616
    },
    "733": {
        "125": 5.10656,
        "250": 10.500680000000001,
        "500": 14.099920000000001,
        "750": 19.15276,
        "1000": 24.006520000000002,
        "1500": 33.34116,
        "2000": 42.344,
        "2500": 51.11616,
        "3000": 59.724,
        "3500": 68.19912000000001,
        "4000": 76.56363999999999
    },
    "734": {
        "125": 5.3246,
        "250": 11.003120000000001,
        "500": 14.874120000000001,
        "750": 20.28404,
        "1000": 25.49804,
        "1500": 35.55,
        "2000": 45.27648000000001,
        "2500": 54.778600000000004,
        "3000": 64.11324,
        "3500": 73.32148000000001,
        "4000": 82.42544000000001
    },
    "735": {
        "125": 4.863239999999999,
        "250": 9.963479999999999,
        "500": 13.294120000000001,
        "750": 17.99304,
        "1000": 22.49604,
        "1500": 31.126,
        "2000": 39.42732,
        "2500": 47.50428,
        "3000": 55.4106,
        "3500": 63.184200000000004,
        "4000": 70.85036
    },
    "736": {
        "125": 4.819,
        "250": 9.71384,
        "500": 12.6242,
        "750": 16.82384,
        "1000": 20.80544,
        "1500": 28.34836,
        "2000": 35.51524,
        "2500": 42.42616,
        "3000": 49.14748,
        "3500": 55.71396,
        "4000": 62.1572
    },
    "737": {
        "125": 5.356199999999999,
        "250": 10.867239999999999,
        "500": 14.267400000000002,
        "750": 19.12748,
        "1000": 23.75372,
        "1500": 32.56064000000001,
        "2000": 40.966240000000006,
        "2500": 49.096920000000004,
        "3000": 57.02852000000001,
        "3500": 64.79264,
        "4000": 72.4272
    },
    "738": {
        "125": 5.4194,
        "250": 11.04104,
        "500": 14.602360000000001,
        "750": 19.658360000000002,
        "1000": 24.48684,
        "1500": 33.70456000000001,
        "2000": 42.5336,
        "2500": 51.0972,
        "3000": 59.46488000000001,
        "3500": 67.6714,
        "4000": 75.75152
    },
    "739": {
        "125": 5.63112,
        "250": 11.505560000000001,
        "500": 15.29124,
        "750": 20.644280000000002,
        "1000": 25.76664,
        "1500": 35.5658,
        "2000": 44.976279999999996,
        "2500": 54.115,
        "3000": 63.05464,
        "3500": 71.83628,
        "4000": 80.48836
    },
    "741": {
        "125": 17.7118,
        "250": 36.36844,
        "500": 53.3408,
        "750": 75.48608,
        "1000": 97.49548000000001,
        "1500": 141.331,
        "2000": 185.11280000000002,
        "2500": 228.93568000000002,
        "3000": 272.83756,
        "3500": 316.8374,
        "4000": 360.94784000000004,
        "4500": 405.16888,
        "5000": 449.50052,
        "5500": 493.94592000000006,
        "6000": 538.4987600000001,
        "6500": 583.15904,
        "7000": 627.9236,
        "7500": 672.79244
    },
    "742": {
        "125": 17.40528,
        "250": 35.742760000000004,
        "500": 52.4244,
        "750": 74.19048000000001,
        "1000": 95.82068000000001,
        "1500": 138.90412,
        "2000": 181.937,
        "2500": 225.00464000000002,
        "3000": 268.15444,
        "3500": 311.4022,
        "4000": 354.75424,
        "4500": 398.21372,
        "5000": 441.78696,
        "5500": 485.46764,
        "6000": 529.25576,
        "6500": 573.15132,
        "7000": 617.148,
        "7500": 661.24264
    },
    "743": {
        "125": 16.66268,
        "250": 34.21332,
        "500": 50.180800000000005,
        "750": 71.01468000000001,
        "1000": 91.71584000000001,
        "1500": 132.95383999999999,
        "2000": 174.14128,
        "2500": 215.36664000000002,
        "3000": 256.66784,
        "3500": 298.06068,
        "4000": 339.5578,
        "4500": 381.1592,
        "5000": 422.86488,
        "5500": 464.67484,
        "6000": 506.58592000000004,
        "6500": 548.60128,
        "7000": 590.71144,
        "7500": 632.91956
    },
    "744": {
        "125": 14.912040000000001,
        "250": 30.6204,
        "500": 44.90992000000001,
        "750": 63.55708,
        "1000": 82.08732,
        "1500": 118.99612,
        "2000": 155.86068,
        "2500": 192.75683999999998,
        "3000": 229.71936000000002,
        "3500": 266.7672,
        "4000": 303.90668,
        "4500": 341.14096,
        "5000": 378.46688,
        "5500": 415.87811999999997,
        "6000": 443.32272,
        "6500": 469.99944,
        "7000": 495.94936000000007,
        "7500": 521.20408
    },
    "747": {
        "125": 14.912040000000001,
        "250": 30.6204,
        "500": 44.90992000000001,
        "750": 63.55708,
        "1000": 82.08732,
        "1500": 118.99612,
        "2000": 155.86068,
        "2500": 192.75683999999998,
        "3000": 229.71936000000002,
        "3500": 266.7672,
        "4000": 303.90668,
        "4500": 341.14096,
        "5000": 378.46688,
        "5500": 415.87811999999997,
        "6000": 443.32272,
        "6500": 469.99944,
        "7000": 495.94936000000007,
        "7500": 521.20408
    },
    "752": {
        "125": 6.82244,
        "250": 14.0146,
        "500": 18.76724,
        "750": 25.45064,
        "1000": 31.8686,
        "1500": 44.189440000000005,
        "2000": 56.0584,
        "2500": 67.61768000000001,
        "3000": 78.94628,
        "3500": 88.98244
    },
    "753": {
        "125": 7.36596,
        "250": 15.247,
        "500": 20.619,
        "750": 28.12084,
        "1000": 35.35408,
        "1500": 49.30232,
        "2000": 62.79552,
        "2500": 75.97904000000001,
        "3000": 88.9382,
        "3500": 100.34264
    },
    "757": {
        "125": 6.82244,
        "250": 14.0146,
        "500": 18.76724,
        "750": 25.45064,
        "1000": 31.8686,
        "1500": 44.189440000000005,
        "2000": 56.0584,
        "2500": 67.61768000000001,
        "3000": 78.94628,
        "3500": 88.98244
    },
    "762": {
        "125": 8.4846,
        "250": 17.24412,
        "500": 24.095,
        "750": 33.14208,
        "1000": 41.952160000000006,
        "1500": 59.11412,
        "2000": 75.88108,
        "2500": 92.38892,
        "3000": 108.71032000000001,
        "3500": 124.88952,
        "4000": 140.95180000000002,
        "4500": 156.92244,
        "5000": 172.81092,
        "5500": 187.68820000000002,
        "6000": 198.41956,
        "6500": 208.57896000000002
    },
    "763": {
        "125": 9.164,
        "250": 18.324840000000002,
        "500": 25.18836,
        "750": 34.6494,
        "1000": 43.857639999999996,
        "1500": 61.80012,
        "2000": 79.32864,
        "2500": 96.58856,
        "3000": 113.65256000000001,
        "3500": 130.56488000000002,
        "4000": 147.35712,
        "4500": 164.0514,
        "5000": 180.66352,
        "5500": 196.25496,
        "6000": 207.612,
        "6500": 218.39392
    },
    "764": {
        "125": 9.36308,
        "250": 19.367639999999998,
        "500": 27.062240000000003,
        "750": 37.2248,
        "1000": 47.11876,
        "1500": 66.39476,
        "2000": 85.22836,
        "2500": 103.77124,
        "3000": 122.10556000000001,
        "3500": 140.27555999999998,
        "4000": 158.316,
        "4500": 176.25532,
        "5000": 192.75683999999998,
        "5500": 205.4
    },
    "767": {
        "125": 9.164,
        "250": 18.324840000000002,
        "500": 25.18836,
        "750": 34.6494,
        "1000": 43.857639999999996,
        "1500": 61.80012,
        "2000": 79.32864,
        "2500": 96.58856,
        "3000": 113.65256000000001,
        "3500": 130.56488000000002,
        "4000": 147.35712,
        "4500": 164.0514,
        "5000": 180.66352,
        "5500": 196.25496,
        "6000": 207.612,
        "6500": 218.39392
    },
    "772": {
        "125": 11.663560000000002,
        "250": 24.70804,
        "500": 34.3808,
        "750": 47.1788,
        "1000": 59.61656000000001,
        "1500": 83.79688,
        "2000": 107.38312,
        "2500": 130.5712,
        "3000": 153.46856,
        "3500": 176.14472,
        "4000": 198.64076,
        "4500": 220.98828,
        "5000": 243.21256,
        "5500": 265.33256,
        "6000": 285.59448000000003,
        "6500": 303.89088,
        "7000": 321.85548000000006,
        "7500": 339.5104
    },
    "773": {
        "125": 12.90544,
        "250": 27.08752,
        "500": 37.95476,
        "750": 52.29484,
        "1000": 66.27152000000001,
        "1500": 93.52968000000001,
        "2000": 120.20008,
        "2500": 146.48180000000002,
        "3000": 172.48544,
        "3500": 198.2742,
        "4000": 223.89548000000002,
        "4500": 248.84052000000003,
        "5000": 270.101,
        "5500": 290.91276,
        "6000": 311.32004000000006,
        "6500": 331.34812,
        "7000": 351.02860000000004,
        "7500": 370.38360000000006,
        "8000": 389.42892000000006
    },
    "777": {
        "125": 11.663560000000002,
        "250": 24.70804,
        "500": 34.3808,
        "750": 47.1788,
        "1000": 59.61656000000001,
        "1500": 83.79688,
        "2000": 107.38312,
        "2500": 130.5712,
        "3000": 153.46856,
        "3500": 176.14472,
        "4000": 198.64076,
        "4500": 220.98828,
        "5000": 243.21256,
        "5500": 265.33256,
        "6000": 285.59448000000003,
        "6500": 303.89088,
        "7000": 321.85548000000006,
        "7500": 339.5104,
        "8000": 356.87144,
        "8500": 373.9544
    },
    "787": {
        "125": 8.336079999999999,
        "250": 17.43372,
        "500": 24.357280000000003,
        "750": 33.505480000000006,
        "1000": 42.41036,
        "1500": 59.75876,
        "2000": 76.71216,
        "2500": 93.40012000000002,
        "3000": 109.90164,
        "3500": 126.25464,
        "4000": 142.49388000000002,
        "4500": 158.63832,
        "5000": 174.70376000000002,
        "5500": 190.69968000000003,
        "6000": 206.63872,
        "6500": 222.52404,
        "7000": 238.36828,
        "7500": 248.83104,
        "8000": 258.57648
    },
    "788": {
        "125": 8.336079999999999,
        "250": 17.43372,
        "500": 24.357280000000003,
        "750": 33.505480000000006,
        "1000": 42.41036,
        "1500": 59.75876,
        "2000": 76.71216,
        "2500": 93.40012000000002,
        "3000": 109.90164,
        "3500": 126.25464,
        "4000": 142.49388000000002,
        "4500": 158.63832,
        "5000": 174.70376000000002,
        "5500": 190.69968000000003,
        "6000": 206.63872,
        "6500": 222.52404,
        "7000": 238.36828,
        "7500": 256.65836,
        "8000": 266.82724
    },
    "14F": {
        "125": 4.07324,
        "250": 8.70264,
        "500": 12.24184,
        "750": 16.615280000000002,
        "1000": 20.856,
        "1500": 29.06884,
        "2000": 37.051
    },
    "31F": {
        "125": 8.74056,
        "250": 18.41648,
        "500": 25.912,
        "750": 35.787,
        "1000": 45.43132,
        "1500": 64.2744,
        "2000": 82.7446,
        "2500": 100.97464,
        "3000": 119.02772,
        "3500": 136.95124
    },
    "31Y": {
        "125": 8.30448,
        "250": 17.496920000000003,
        "500": 24.616400000000002,
        "750": 33.99844,
        "1000": 43.159279999999995,
        "1500": 61.06068,
        "2000": 78.60816,
        "2500": 95.92496000000001,
        "3000": 113.07744,
        "3500": 130.10352
    },
    "32A": {
        "125": 5.28352,
        "250": 10.8388,
        "500": 14.4886,
        "750": 19.629920000000002,
        "1000": 24.55952,
        "1500": 34.02056,
        "2000": 43.12768,
        "2500": 51.98832
    },
    "32S": {
        "125": 5.28352,
        "250": 10.8388,
        "500": 14.4886,
        "750": 19.629920000000002,
        "1000": 24.55952,
        "1500": 34.02056,
        "2000": 43.12768,
        "2500": 51.98832,
        "3000": 60.672,
        "3500": 69.21032000000001
    },
    "33F": {
        "125": 10.728200000000001,
        "250": 22.006240000000002,
        "500": 30.178,
        "750": 41.06104,
        "1000": 51.57436,
        "1500": 71.88052,
        "2000": 91.55468,
        "2500": 110.8054,
        "3000": 129.74012000000002,
        "3500": 148.42520000000002
    },
    "33X": {
        "125": 10.728200000000001,
        "250": 22.006240000000002,
        "500": 30.178,
        "750": 41.06104,
        "1000": 51.57436,
        "1500": 71.88052,
        "2000": 91.55468,
        "2500": 110.8054,
        "3000": 129.74012000000002,
        "3500": 148.42520000000002
    },
    "72F": {
        "125": 9.0692,
        "250": 18.615560000000002,
        "500": 24.91344,
        "750": 33.774080000000005,
        "1000": 42.27764,
        "1500": 58.59904,
        "2000": 74.31372,
        "2500": 89.62076,
        "3000": 104.61496000000001
    },
    "73C": {
        "125": 5.056,
        "250": 10.34268,
        "500": 13.761800000000001,
        "750": 18.59344,
        "1000": 23.21968,
        "1500": 32.07716,
        "2000": 40.58388000000001,
        "2500": 48.85360000000001,
        "3000": 56.94004,
        "3500": 64.88744,
        "4000": 72.72108
    },
    "73E": {
        "125": 4.83164,
        "250": 9.843399999999999,
        "500": 13.009720000000002,
        "750": 17.50956,
        "1000": 21.80716,
        "1500": 30.007360000000002,
        "2000": 37.85996,
        "2500": 45.4724,
        "3000": 52.91104,
        "3500": 60.20432,
        "4000": 67.387
    },
    "73F": {
        "125": 5.618480000000001,
        "250": 11.71728,
        "500": 15.67992,
        "750": 21.25732,
        "1000": 26.61036,
        "1500": 36.883520000000004,
        "2000": 46.77432,
        "2500": 56.406,
        "3000": 65.84808,
        "3500": 75.13532000000001,
        "4000": 84.29616
    },
    "73G": {
        "125": 5.011760000000001,
        "250": 10.118319999999999,
        "500": 13.18668,
        "750": 17.601200000000002,
        "1000": 21.7882,
        "1500": 29.7356,
        "2000": 37.30064,
        "2500": 44.59708,
        "3000": 51.69760000000001,
        "3500": 58.643280000000004,
        "4000": 65.4594
    },
    "73H": {
        "125": 5.356199999999999,
        "250": 10.867239999999999,
        "500": 14.267400000000002,
        "750": 19.12748,
        "1000": 23.75372,
        "1500": 32.56064000000001,
        "2000": 40.966240000000006,
        "2500": 49.096920000000004,
        "3000": 57.02852000000001,
        "3500": 64.79264,
        "4000": 72.4272
    },
    "73J": {
        "125": 5.564760000000001,
        "250": 11.31596,
        "500": 14.92784,
        "750": 20.06916,
        "1000": 24.97348,
        "1500": 34.32392,
        "2000": 43.27304,
        "2500": 51.94408,
        "3000": 60.40972,
        "3500": 68.70788,
        "4000": 76.87648000000002
    },
    "73L": {
        "125": 5.618480000000001,
        "250": 11.71728,
        "500": 15.67992,
        "750": 21.25732,
        "1000": 26.61036,
        "1500": 36.883520000000004,
        "2000": 46.77432,
        "2500": 56.406
    },
    "73M": {
        "125": 5.618480000000001,
        "250": 11.71728,
        "500": 15.67992,
        "750": 21.25732,
        "1000": 26.61036,
        "1500": 36.883520000000004,
        "2000": 46.77432,
        "2500": 56.406
    },
    "73N": {
        "125": 5.10656,
        "250": 10.500680000000001,
        "500": 14.099920000000001,
        "750": 19.15276,
        "1000": 24.006520000000002,
        "1500": 33.34116,
        "2000": 42.344,
        "2500": 51.11616,
        "3000": 59.724,
        "3500": 68.19912000000001,
        "4000": 76.56363999999999
    },
    "73P": {
        "125": 5.5931999999999995,
        "250": 11.55296,
        "500": 15.61672,
        "750": 21.2984,
        "1000": 26.77152,
        "1500": 37.329080000000005,
        "2000": 47.53904,
        "2500": 57.51516,
        "3000": 67.32064
    },
    "73Q": {
        "125": 5.5931999999999995,
        "250": 11.55296,
        "500": 15.61672,
        "750": 21.2984,
        "1000": 26.77152,
        "1500": 37.329080000000005,
        "2000": 47.53904,
        "2500": 57.51516,
        "3000": 67.32064,
        "3500": 76.98708,
        "4000": 86.54608
    },
    "73R": {
        "125": 5.011760000000001,
        "250": 10.118319999999999,
        "500": 13.18668,
        "750": 17.601200000000002,
        "1000": 21.7882,
        "1500": 29.7356,
        "2000": 37.30064,
        "2500": 44.59708,
        "3000": 51.69760000000001,
        "3500": 58.643280000000004,
        "4000": 65.4594
    },
    "73W": {
        "125": 4.95172,
        "250": 9.95084,
        "500": 12.87384,
        "750": 17.1114,
        "1000": 21.121440000000003,
        "1500": 28.699120000000004,
        "2000": 35.88812,
        "2500": 42.80852,
        "3000": 49.52984000000001,
        "3500": 56.09,
        "4000": 62.52376
    },
    "73X": {
        "125": 5.618480000000001,
        "250": 11.71728,
        "500": 15.67992,
        "750": 21.25732,
        "1000": 26.61036,
        "1500": 36.883520000000004,
        "2000": 46.77432,
        "2500": 56.406
    },
    "73Y": {
        "125": 5.359360000000001,
        "250": 10.965200000000001,
        "500": 14.589720000000002,
        "750": 19.71208,
        "1000": 24.61324,
        "1500": 34.001599999999996,
        "2000": 43.02024000000001,
        "2500": 51.782920000000004,
        "3000": 60.356,
        "3500": 68.78372,
        "4000": 77.08504
    },
    "74E": {
        "125": 14.912040000000001,
        "250": 30.6204,
        "500": 44.90992000000001,
        "750": 63.55708,
        "1000": 82.08732,
        "1500": 118.99612,
        "2000": 155.86068,
        "2500": 192.75683999999998,
        "3000": 229.71936000000002,
        "3500": 266.7672,
        "4000": 303.90668,
        "4500": 341.14096,
        "5000": 378.46688,
        "5500": 415.87811999999997,
        "6000": 443.32272,
        "6500": 469.99944,
        "7000": 495.94936000000007,
        "7500": 521.20408
    },
    "74F": {
        "125": 17.40528,
        "250": 35.742760000000004,
        "500": 52.4244,
        "750": 74.19048000000001,
        "1000": 95.82068000000001,
        "1500": 138.90412,
        "2000": 181.937,
        "2500": 225.00464000000002,
        "3000": 268.15444,
        "3500": 311.4022,
        "4000": 354.75424,
        "4500": 398.21372,
        "5000": 441.78696,
        "5500": 485.46764,
        "6000": 529.25576,
        "6500": 573.15132,
        "7000": 617.148,
        "7500": 661.24264
    },
    "74H": {
        "125": 13.95456,
        "250": 28.386280000000003,
        "500": 41.633,
        "750": 58.918200000000006,
        "1000": 76.09596,
        "1500": 110.30928,
        "2000": 144.48152000000002,
        "2500": 178.68536,
        "3000": 212.94924000000003,
        "3500": 247.29528,
        "4000": 281.72348000000005,
        "4500": 316.237,
        "5000": 350.839,
        "5500": 385.52632,
        "6000": 420.30212,
        "6500": 449.55108,
        "7000": 474.2212,
        "7500": 498.21192
    },
    "74L": {
        "125": 14.226320000000001,
        "250": 29.20788,
        "500": 42.840120000000006,
        "750": 60.62460000000001,
        "1000": 78.29848000000001,
        "1500": 113.50404,
        "2000": 148.66536000000002,
        "2500": 183.85828,
        "3000": 219.11756,
        "3500": 254.45584000000002,
        "4000": 289.87944,
        "4500": 325.39468,
        "5000": 360.9984,
        "5500": 396.6906,
        "6000": 432.47444,
        "6500": 468.34044,
        "7000": 504.29176,
        "7500": 540.32524
    },
    "74N": {
        "125": 13.95456,
        "250": 28.386280000000003,
        "500": 41.633,
        "750": 58.918200000000006,
        "1000": 76.09596,
        "1500": 110.30928,
        "2000": 144.48152000000002,
        "2500": 178.68536,
        "3000": 212.94924000000003,
        "3500": 247.29528,
        "4000": 281.72348000000005,
        "4500": 316.237,
        "5000": 350.839,
        "5500": 385.52632,
        "6000": 420.30212,
        "6500": 449.55108,
        "7000": 474.2212,
        "7500": 498.21192
    },
    "74Y": {
        "125": 14.912040000000001,
        "250": 30.6204,
        "500": 44.90992000000001,
        "750": 63.55708,
        "1000": 82.08732,
        "1500": 118.99612,
        "2000": 155.86068,
        "2500": 192.75683999999998,
        "3000": 229.71936000000002,
        "3500": 266.7672,
        "4000": 303.90668,
        "4500": 341.14096,
        "5000": 378.46688,
        "5500": 415.87811999999997,
        "6000": 443.32272,
        "6500": 469.99944,
        "7000": 495.94936000000007,
        "7500": 521.20408
    },
    "75F": {
        "125": 7.27432,
        "250": 14.943640000000002,
        "500": 20.009120000000003,
        "750": 27.138080000000002,
        "1000": 33.97948,
        "1500": 47.11876,
        "2000": 59.77456000000001,
        "2500": 72.09855999999999,
        "3000": 84.17924000000001,
        "3500": 95.10968000000001
    },
    "75T": {
        "125": 7.32488,
        "250": 15.03528,
        "500": 20.107080000000003,
        "750": 27.24868,
        "1000": 34.099560000000004,
        "1500": 47.245160000000006,
        "2000": 59.897800000000004,
        "2500": 72.21864,
        "3000": 84.28668,
        "3500": 95.23924000000001
    },
    "75W": {
        "125": 6.7845200000000006,
        "250": 13.88504,
        "500": 18.40384,
        "750": 24.806,
        "1000": 30.926920000000003,
        "1500": 42.625240000000005,
        "2000": 53.84008,
        "2500": 64.72628,
        "3000": 75.36283999999999,
        "3500": 84.62480000000001
    },
    "76F": {
        "125": 9.87184,
        "250": 19.74684,
        "500": 27.201280000000004,
        "750": 37.41756,
        "1000": 47.36208,
        "1500": 66.73604,
        "2000": 85.66760000000001,
        "2500": 104.30528,
        "3000": 122.73124,
        "3500": 140.99604000000002,
        "4000": 159.12812,
        "4500": 177.15908000000002,
        "5000": 193.76804,
        "5500": 206.49336000000002,
        "6000": 218.59932,
        "6500": 230.12068000000002
    },
    "76W": {
        "125": 9.164,
        "250": 18.324840000000002,
        "500": 24.81864,
        "750": 33.87836,
        "1000": 42.65052000000001,
        "1500": 59.63552000000001,
        "2000": 76.13388,
        "2500": 92.30676000000001,
        "3000": 108.23948000000001,
        "3500": 123.9826,
        "4000": 139.57404,
        "4500": 155.03908,
        "5000": 170.39983999999998,
        "5500": 185.25816,
        "6000": 195.8094,
        "6500": 205.795
    },
    "76Y": {
        "125": 9.87184,
        "250": 19.74684,
        "500": 27.201280000000004,
        "750": 37.41756,
        "1000": 47.36208,
        "1500": 66.73604,
        "2000": 85.66760000000001,
        "2500": 104.30528,
        "3000": 122.73124,
        "3500": 140.99604000000002,
        "4000": 159.12812,
        "4500": 177.15908000000002,
        "5000": 193.76804,
        "5500": 206.49336000000002,
        "6000": 218.59932,
        "6500": 230.12068000000002
    },
    "77F": {
        "125": 12.245,
        "250": 25.943600000000004,
        "500": 36.09668,
        "750": 49.533,
        "1000": 62.590120000000006,
        "1500": 87.98072,
        "2000": 112.74564,
        "2500": 137.09028,
        "3000": 161.13156,
        "3500": 184.939,
        "4000": 208.55684,
        "4500": 232.023,
        "5000": 255.35644,
        "5500": 278.57928000000004,
        "6000": 299.35312,
        "6500": 318.5754,
        "7000": 337.45956,
        "7500": 356.0214,
        "8000": 374.28304,
        "8500": 392.26028
    },
    "77L": {
        "125": 12.03644,
        "250": 25.49804,
        "500": 35.48048,
        "750": 48.68928,
        "1000": 61.522040000000004,
        "1500": 86.47972,
        "2000": 110.81804000000001,
        "2500": 134.74872,
        "3000": 158.37920000000003,
        "3500": 181.779,
        "4000": 204.99552000000003,
        "4500": 228.06036,
        "5000": 250.99564,
        "5500": 273.82348,
        "6000": 296.55336,
        "6500": 317.56736,
        "7000": 336.38516000000004,
        "7500": 354.88696000000004,
        "8000": 373.08856,
        "8500": 391.00260000000003
    },
    "77W": {
        "125": 13.047640000000001,
        "250": 27.38772,
        "500": 38.371880000000004,
        "750": 52.86996,
        "1000": 66.99832,
        "1500": 94.55984000000001,
        "2000": 121.52412000000001,
        "2500": 148.0934,
        "3000": 174.38144,
        "3500": 200.45776,
        "4000": 226.36028,
        "4500": 252.12376,
        "5000": 277.77348000000006,
        "5500": 303.64124,
        "6000": 324.96808000000004,
        "6500": 345.9094,
        "7000": 366.49048000000005,
        "7500": 386.73344000000003
    },
    "77X": {
        "125": 12.245,
        "250": 25.943600000000004,
        "500": 36.09668,
        "750": 49.533,
        "1000": 62.590120000000006,
        "1500": 87.98072,
        "2000": 112.74564,
        "2500": 137.09028,
        "3000": 161.13156,
        "3500": 184.939,
        "4000": 208.55684,
        "4500": 232.023,
        "5000": 255.35644,
        "5500": 278.57928000000004,
        "6000": 299.35312,
        "6500": 318.5754,
        "7000": 337.45956,
        "7500": 356.0214,
        "8000": 374.28304,
        "8500": 392.26028
    },
    "A40": {
        "125": 1.75696,
        "250": 3.5107600000000003,
        "500": 5.2772,
        "750": 7.13212,
        "1000": 8.88592,
        "1500": 12.20076,
        "2000": 15.348120000000002
    },
    "A81": {
        "125": 3.9026000000000005,
        "250": 7.80204,
        "500": 10.27316,
        "750": 13.411040000000002,
        "1000": 16.37828,
        "1500": 21.95884,
        "2000": 27.22972
    },
    "AB3": {
        "125": 10.82932,
        "250": 22.818360000000002,
        "500": 32.10244,
        "750": 44.341120000000004,
        "1000": 56.285920000000004,
        "1500": 79.632,
        "2000": 102.51672,
        "2500": 125.10124,
        "3000": 147.46772,
        "3500": 169.67304000000001,
        "4000": 191.75512,
        "4500": 213.72976
    },
    "AB4": {
        "125": 10.82932,
        "250": 22.818360000000002,
        "500": 32.10244,
        "750": 44.341120000000004,
        "1000": 56.285920000000004,
        "1500": 79.632,
        "2000": 102.51672,
        "2500": 125.10124,
        "3000": 147.46772,
        "3500": 169.67304000000001,
        "4000": 191.75512,
        "4500": 213.72976
    },
    "AB6": {
        "125": 9.85604,
        "250": 20.76436,
        "500": 29.2142,
        "750": 40.35004,
        "1000": 51.22044,
        "1500": 72.46512000000001,
        "2000": 93.28952000000001,
        "2500": 113.84216,
        "3000": 134.19572,
        "3500": 154.40392,
        "4000": 174.4952,
        "4500": 194.49484
    },
    "ABF": {
        "125": 10.82932,
        "250": 22.818360000000002,
        "500": 32.10244,
        "750": 44.341120000000004,
        "1000": 56.285920000000004,
        "1500": 79.632,
        "2000": 102.51672
    },
    "ABX": {
        "125": 10.82932,
        "250": 22.818360000000002,
        "500": 32.10244,
        "750": 44.341120000000004,
        "1000": 56.285920000000004,
        "1500": 79.632,
        "2000": 102.51672,
        "2500": 125.10124
    },
    "ABY": {
        "125": 9.85604,
        "250": 20.76436,
        "500": 29.2142,
        "750": 40.35004,
        "1000": 51.22044,
        "1500": 72.46512000000001,
        "2000": 93.28952000000001,
        "2500": 113.84216
    },
    "AGH": {
        "125": 0.38868,
        "250": 0.78052,
        "500": 1.1376000000000002,
        "750": 1.51048,
        "1000": 1.8644,
        "1500": 2.52484
    },
    "AN4": {
        "125": 2.3226,
        "250": 4.22492,
        "500": 6.0356000000000005,
        "750": 8.01376
    },
    "AN6": {
        "125": 2.9862,
        "250": 5.17924,
        "500": 7.19216,
        "750": 9.45156,
        "1000": 11.60984,
        "1500": 15.70836
    },
    "ANF": {
        "125": 6.778200000000001,
        "250": 12.39668,
        "500": 17.7592,
        "750": 23.61152,
        "1000": 29.169960000000003,
        "1500": 39.71488000000001,
        "2000": 49.74472,
        "2500": 59.408,
        "3000": 68.80268000000001
    },
    "AR1": {
        "125": 4.18384,
        "250": 9.08184,
        "500": 12.971800000000002,
        "750": 17.76236,
        "1000": 22.436,
        "1500": 31.555760000000003
    },
    "AR8": {
        "125": 4.07324,
        "250": 8.70264,
        "500": 12.24184,
        "750": 16.615280000000002,
        "1000": 20.856,
        "1500": 29.06884,
        "2000": 37.051
    },
    "ARJ": {
        "125": 4.07324,
        "250": 8.70264,
        "500": 12.24184,
        "750": 16.615280000000002,
        "1000": 20.856,
        "1500": 29.06884,
        "2000": 37.051
    },
    "AT4": {
        "125": 1.1376000000000002,
        "250": 2.2846800000000003,
        "500": 3.4538800000000003,
        "750": 4.69576,
        "1000": 5.88708,
        "1500": 8.17808
    },
    "AT5": {
        "125": 1.34616,
        "250": 2.77448,
        "500": 4.41452,
        "750": 6.29788,
        "1000": 8.25392,
        "1500": 12.45672
    },
    "AT7": {
        "125": 1.37144,
        "250": 2.81556,
        "500": 4.45244,
        "750": 6.307360000000001,
        "1000": 8.22548,
        "1500": 12.295560000000002,
        "2000": 16.72588
    },
    "ATP": {
        "125": 1.5768400000000002,
        "250": 3.1536800000000005,
        "500": 4.74,
        "750": 6.405320000000001,
        "1000": 7.979,
        "1500": 10.955720000000001,
        "2000": 13.7776
    },
    "ATR": {
        "125": 1.3050800000000002,
        "250": 2.6638800000000002,
        "500": 4.16172,
        "750": 5.84284,
        "1000": 7.549240000000001,
        "1500": 11.110560000000001,
        "2000": 14.908880000000002
    },
    "BE1": {
        "125": 0.9764400000000001,
        "250": 1.9497200000000001,
        "500": 2.93248,
        "750": 3.9626400000000004,
        "1000": 4.93592,
        "1500": 6.778200000000001
    },
    "BE2": {
        "125": 0.25912,
        "250": 0.51824,
        "500": 0.83424,
        "750": 1.11864,
        "1000": 1.3840800000000002,
        "1500": 1.88652
    },
    "BE9": {
        "125": 0.6636,
        "250": 1.3272,
        "500": 1.99396,
        "750": 2.69548
    },
    "BEC": {
        "125": 0.1264,
        "250": 0.24964000000000003,
        "500": 0.37604000000000004,
        "750": 0.5087600000000001
    },
    "BEH": {
        "125": 0.9764400000000001,
        "250": 1.9497200000000001,
        "500": 2.93248,
        "750": 3.9626400000000004,
        "1000": 4.93592,
        "1500": 6.778200000000001
    },
    "BES": {
        "125": 0.87848,
        "250": 1.75696,
        "500": 2.6386,
        "750": 3.5676400000000004,
        "1000": 4.44296,
        "1500": 6.10196
    },
    "BET": {
        "125": 0.6636,
        "250": 1.3272,
        "500": 1.99396,
        "750": 2.69548,
        "1000": 3.3559200000000002,
        "1500": 4.6104400000000005
    },
    "BH2": {
        "125": 0.29388,
        "250": 0.5846,
        "500": 0.8532000000000001,
        "750": 1.1344400000000001,
        "1000": 1.39672,
        "1500": 1.89284
    },
    "BNI": {
        "125": 0.22436,
        "250": 0.44872,
        "500": 0.72364,
        "750": 0.97012
    },
    "BNT": {
        "125": 0.33496000000000004,
        "250": 0.67308,
        "500": 1.08704,
        "750": 1.4536000000000002,
        "1000": 1.8012000000000001,
        "1500": 2.45532,
        "2000": 3.0746800000000003,
        "2500": 3.6687600000000002
    },
    "CN1": {
        "125": 0.08532000000000001,
        "250": 0.17064000000000001,
        "500": 0.27808000000000005,
        "750": 0.36972000000000005
    },
    "CNA": {
        "125": 0.08532000000000001,
        "250": 0.17064000000000001,
        "500": 0.27492,
        "750": 0.36656
    },
    "CNC": {
        "125": 0.3476,
        "250": 0.6952,
        "500": 1.0428,
        "750": 1.4093600000000002
    },
    "CNF": {
        "125": 0.43608,
        "250": 0.8753200000000001,
        "500": 1.41252,
        "750": 1.88968
    },
    "CNJ": {
        "125": 1.343,
        "250": 2.68284,
        "500": 3.53288,
        "750": 4.6136,
        "1000": 5.63428,
        "1500": 7.5524000000000004,
        "2000": 9.36624,
        "2500": 11.104239999999999,
        "3000": 12.78852
    },
    "CNT": {
        "125": 0.2054,
        "250": 0.41396000000000005,
        "500": 0.62252,
        "750": 0.8405600000000001,
        "1000": 1.04596,
        "1500": 1.4378
    },
    "CR1": {
        "125": 2.50904,
        "250": 5.03704,
        "500": 6.68656,
        "750": 8.80376,
        "1000": 10.8388,
        "1500": 14.76984
    },
    "CR2": {
        "125": 2.46796,
        "250": 4.95804,
        "500": 6.58544,
        "750": 8.66788,
        "1000": 10.67448,
        "1500": 14.551800000000002
    },
    "CR7": {
        "125": 3.29588,
        "250": 6.610720000000001,
        "500": 8.75952,
        "750": 11.50872,
        "1000": 14.141,
        "1500": 19.20016
    },
    "CR9": {
        "125": 3.53604,
        "250": 7.113160000000001,
        "500": 9.46104,
        "750": 12.47884,
        "1000": 15.395520000000001,
        "1500": 21.05824
    },
    "CRA": {
        "125": 3.29588,
        "250": 6.610720000000001,
        "500": 8.75952,
        "750": 11.50872,
        "1000": 14.141,
        "1500": 19.20016
    },
    "CRF": {
        "125": 2.46796,
        "250": 4.95804,
        "500": 6.58544,
        "750": 8.66788,
        "1000": 10.67448,
        "1500": 14.551800000000002
    },
    "CRJ": {
        "125": 2.83768,
        "250": 5.70064,
        "500": 7.568200000000001,
        "750": 9.963479999999999,
        "1000": 12.26712,
        "1500": 16.713240000000003
    },
    "CRK": {
        "125": 3.71932,
        "250": 7.47656,
        "500": 9.9382,
        "750": 13.101360000000001,
        "1000": 16.1476,
        "1500": 22.059960000000004
    },
    "CS2": {
        "125": 0.7710400000000001,
        "250": 1.5420800000000001,
        "500": 2.3162800000000003,
        "750": 3.13156,
        "1000": 3.8994400000000002,
        "1500": 5.356199999999999
    },
    "CV5": {
        "125": 2.4174,
        "250": 4.83796,
        "500": 7.271160000000001,
        "750": 9.8276,
        "1000": 12.245,
        "1500": 16.8112
    },
    "CVF": {
        "125": 2.23096,
        "250": 4.46192,
        "500": 6.70868,
        "750": 9.066040000000001,
        "1000": 11.297,
        "1500": 15.50928
    },
    "CWC": {
        "125": 1.34616,
        "250": 2.69232,
        "500": 4.35132,
        "750": 5.820720000000001,
        "1000": 7.2048000000000005,
        "1500": 9.81812
    },
    "D1F": {
        "125": 15.08268,
        "250": 30.65516,
        "500": 42.833800000000004,
        "750": 58.92136,
        "1000": 74.57916,
        "1500": 105.08896,
        "2000": 134.9004,
        "2500": 164.25048,
        "3000": 193.2656,
        "3500": 222.02476000000001,
        "4000": 250.58168000000003,
        "4500": 278.97112,
        "5000": 307.22152,
        "5500": 335.35184000000004,
        "6000": 363.38104000000004,
        "6500": 391.31860000000006,
        "7000": 419.17716,
        "7500": 446.9662
    },
    "D28": {
        "125": 0.64148,
        "250": 1.2861200000000002,
        "500": 1.93392,
        "750": 2.6101600000000005
    },
    "D38": {
        "125": 1.3050800000000002,
        "250": 2.607,
        "500": 3.9184,
        "750": 5.2961599999999995
    },
    "D6F": {
        "125": 2.7176,
        "250": 5.4352,
        "500": 8.7848,
        "750": 11.748880000000002,
        "1000": 14.545480000000001,
        "1500": 19.822680000000002,
        "2000": 24.821800000000003,
        "2500": 29.625,
        "3000": 34.286,
        "3500": 38.83324,
        "4000": 43.28568,
        "4500": 47.65912
    },
    "D93": {
        "125": 5.60268,
        "250": 11.5024,
        "500": 15.39236,
        "750": 20.86864,
        "1000": 26.123720000000002,
        "1500": 36.20728,
        "2000": 45.91796,
        "2500": 55.375840000000004
    },
    "D9F": {
        "125": 5.60268,
        "250": 11.5024,
        "500": 15.39236,
        "750": 20.86864,
        "1000": 26.123720000000002,
        "1500": 36.20728,
        "2000": 45.91796,
        "2500": 55.375840000000004
    },
    "DC3": {
        "125": 0.7426,
        "250": 1.48204,
        "500": 2.39528,
        "750": 3.2042400000000004,
        "1000": 3.96896,
        "1500": 5.40676
    },
    "DC9": {
        "125": 5.60268,
        "250": 11.5024,
        "500": 15.39236,
        "750": 20.86864,
        "1000": 26.123720000000002,
        "1500": 36.20728,
        "2000": 45.91796,
        "2500": 55.375840000000004
    },
    "DH1": {
        "125": 1.28296,
        "250": 2.5627600000000004,
        "500": 3.85204,
        "750": 5.20768
    },
    "DH2": {
        "125": 1.3904,
        "250": 2.7808,
        "500": 4.180680000000001,
        "750": 5.65008,
        "1000": 7.0404800000000005
    },
    "DH3": {
        "125": 1.6906,
        "250": 3.37804,
        "500": 5.07812,
        "750": 6.86352
    },
    "DH4": {
        "125": 2.1772400000000003,
        "250": 4.37028,
        "500": 6.61388,
        "750": 8.99652,
        "1000": 11.2812
    },
    "DH7": {
        "125": 1.7064000000000001,
        "250": 3.4128000000000003,
        "500": 5.13184,
        "750": 6.9362,
        "1000": 8.63944
    },
    "DH8": {
        "125": 1.63372,
        "250": 3.26744,
        "500": 4.91064,
        "750": 6.636,
        "1000": 8.26656
    },
    "DHC": {
        "125": 0.78052,
        "250": 1.56104,
        "500": 2.5216800000000004,
        "750": 3.37488,
        "1000": 4.17752,
        "1500": 5.69116
    },
    "DHL": {
        "125": 0.3476,
        "250": 0.6952,
        "500": 1.1218,
        "750": 1.501
    },
    "DHP": {
        "125": 0.15484,
        "250": 0.31284,
        "500": 0.5056,
        "750": 0.6762400000000001
    },
    "DHT": {
        "125": 0.65728,
        "250": 1.31456,
        "500": 1.975,
        "750": 2.6702000000000004
    },
    "E70": {
        "125": 3.397,
        "250": 6.8256000000000006,
        "500": 9.062880000000002,
        "750": 11.935319999999999,
        "1000": 14.69716,
        "1500": 20.037560000000003
    },
    "E75": {
        "125": 3.5170800000000004,
        "250": 7.0784,
        "500": 9.44524,
        "750": 12.491480000000001,
        "1000": 15.4524,
        "1500": 21.251
    },
    "E90": {
        "125": 4.22808,
        "250": 8.49408,
        "500": 11.271720000000002,
        "750": 14.836200000000002,
        "1000": 18.25848,
        "1500": 24.87236,
        "2000": 31.325080000000003
    },
    "E95": {
        "125": 4.30392,
        "250": 8.68052,
        "500": 11.61932,
        "750": 15.423960000000001,
        "1000": 19.140120000000003,
        "1500": 26.490280000000002,
        "2000": 33.868880000000004
    },
    "EM2": {
        "125": 0.9954000000000001,
        "250": 1.975,
        "500": 2.9261600000000003,
        "750": 3.8962800000000004,
        "1000": 4.78424,
        "1500": 6.367400000000001
    },
    "EMB": {
        "125": 0.61304,
        "250": 1.22924,
        "500": 1.8486000000000002,
        "750": 2.4964,
        "1000": 3.10944,
        "1500": 4.26916
    },
    "EMJ": {
        "125": 3.9468400000000003,
        "250": 7.9316,
        "500": 10.54808,
        "750": 13.90716,
        "1000": 17.14932,
        "1500": 23.437720000000002,
        "2000": 29.61552
    },
    "ER3": {
        "125": 2.30364,
        "250": 4.7558,
        "500": 6.46536,
        "750": 8.60152,
        "1000": 10.642880000000002,
        "1500": 14.539159999999999
    },
    "ER4": {
        "125": 2.52484,
        "250": 5.160280000000001,
        "500": 6.939360000000001,
        "750": 9.17348,
        "1000": 11.30016,
        "1500": 15.341800000000001,
        "2000": 19.19068
    },
    "ERD": {
        "125": 2.35104,
        "250": 4.85376,
        "500": 6.5980799999999995,
        "750": 8.77848,
        "1000": 10.86092,
        "1500": 14.839360000000001,
        "2000": 18.64716
    },
    "ERJ": {
        "125": 2.48692,
        "250": 5.09076,
        "500": 6.86352,
        "750": 9.085,
        "1000": 11.202200000000001,
        "1500": 15.22804,
        "2000": 19.06744
    },
    "F28": {
        "125": 4.87588,
        "250": 9.75492,
        "500": 12.84224,
        "750": 16.766959999999997,
        "1000": 20.47048
    },
    "F50": {
        "125": 1.56104,
        "250": 3.12208,
        "500": 4.6926000000000005,
        "750": 6.3421199999999995,
        "1000": 7.9,
        "1500": 10.845120000000001
    },
    "F70": {
        "125": 3.9120800000000004,
        "250": 8.13384,
        "500": 11.39812,
        "750": 15.433440000000001,
        "1000": 19.34236,
        "1500": 26.897920000000003,
        "2000": 34.22596
    },
    "FRJ": {
        "125": 2.1266800000000003,
        "250": 4.253360000000001,
        "500": 5.59952,
        "750": 7.30908
    },
    "I14": {
        "125": 2.1456399999999998,
        "250": 4.2912799999999995,
        "500": 6.44956,
        "750": 8.718440000000001,
        "1000": 10.86092,
        "1500": 14.912040000000001,
        "2000": 18.75776,
        "2500": 22.45812
    },
    "IL7": {
        "125": 28.948760000000004,
        "250": 49.09060000000001,
        "500": 58.34308,
        "750": 74.64868000000001,
        "1000": 90.49924,
        "1500": 120.72464,
        "2000": 149.42376000000002,
        "2500": 177.01056,
        "3000": 203.741,
        "3500": 229.78572
    },
    "IL9": {
        "125": 16.75116,
        "250": 33.672959999999996,
        "500": 44.03144,
        "750": 58.50424,
        "1000": 72.44932,
        "1500": 99.53684000000001,
        "2000": 126.15668000000001,
        "2500": 152.6912,
        "3000": 179.33632,
        "3500": 206.2216,
        "4000": 233.41972,
        "4500": 260.99388,
        "5000": 282.76312,
        "5500": 299.52692
    },
    "J31": {
        "125": 0.67308,
        "250": 1.34616,
        "500": 2.0224,
        "750": 2.7334,
        "1000": 3.40648,
        "1500": 4.6768
    },
    "J32": {
        "125": 0.7173200000000001,
        "250": 1.4346400000000001,
        "500": 2.1582800000000004,
        "750": 2.9166800000000004,
        "1000": 3.634,
        "1500": 4.9896400000000005
    },
    "J41": {
        "125": 0.99224,
        "250": 1.9813200000000002,
        "500": 2.97988,
        "750": 4.0258400000000005,
        "1000": 5.01492,
        "1500": 6.88564
    },
    "L4T": {
        "125": 0.78052,
        "250": 1.56104,
        "500": 2.34472,
        "750": 3.16948
    },
    "LOH": {
        "125": 4.85692,
        "250": 9.71384,
        "500": 14.602360000000001,
        "750": 19.7342,
        "1000": 24.587960000000002,
        "1500": 33.75828,
        "2000": 42.46092000000001,
        "2500": 50.841240000000006,
        "3000": 58.97824000000001,
        "3500": 66.92564,
        "4000": 74.7182
    },
    "M11": {
        "125": 15.08268,
        "250": 30.16536,
        "500": 40.78928,
        "750": 55.710800000000006,
        "1000": 70.16148,
        "1500": 98.1654,
        "2000": 125.37932,
        "2500": 152.06236,
        "3000": 178.35356,
        "3500": 204.34456,
        "4000": 230.08908000000002,
        "4500": 255.62820000000002,
        "5000": 280.99667999999997,
        "5500": 306.21348000000006,
        "6000": 331.30388,
        "6500": 356.2742,
        "7000": 381.14340000000004
    },
    "M1F": {
        "125": 15.08268,
        "250": 30.16536,
        "500": 40.78928,
        "750": 55.710800000000006,
        "1000": 70.16148,
        "1500": 98.1654,
        "2000": 125.37932,
        "2500": 152.06236,
        "3000": 178.35356,
        "3500": 204.34456,
        "4000": 230.08908000000002,
        "4500": 255.62820000000002,
        "5000": 280.99667999999997,
        "5500": 306.21348000000006,
        "6000": 331.30388,
        "6500": 356.2742,
        "7000": 381.14340000000004
    },
    "M80": {
        "125": 6.272600000000001,
        "250": 12.64316,
        "500": 17.27572,
        "750": 23.70948,
        "1000": 29.93468,
        "1500": 41.99956,
        "2000": 53.72632,
        "2500": 65.22556,
        "3000": 76.55732,
        "3500": 87.75952000000001
    },
    "M82": {
        "125": 6.272600000000001,
        "250": 12.64316,
        "500": 17.27572,
        "750": 23.70948,
        "1000": 29.93468,
        "1500": 41.99956,
        "2000": 53.72632,
        "2500": 65.22556,
        "3000": 76.55732,
        "3500": 87.75952000000001
    },
    "M83": {
        "125": 6.272600000000001,
        "250": 12.64316,
        "500": 17.27572,
        "750": 23.70948,
        "1000": 29.93468,
        "1500": 41.99956,
        "2000": 53.72632,
        "2500": 65.22556,
        "3000": 76.55732,
        "3500": 87.75952000000001
    },
    "M87": {
        "125": 5.767,
        "250": 11.62564,
        "500": 15.885320000000002,
        "750": 21.79768,
        "1000": 27.523600000000002,
        "1500": 38.6152,
        "2000": 49.39712,
        "2500": 59.96732,
        "3000": 70.389,
        "3500": 80.68744000000001
    },
    "M88": {
        "125": 6.272600000000001,
        "250": 12.64316,
        "500": 17.27572,
        "750": 23.70948,
        "1000": 29.93468,
        "1500": 41.99956,
        "2000": 53.72632,
        "2500": 65.22556,
        "3000": 76.55732,
        "3500": 87.75952000000001
    },
    "M90": {
        "125": 5.28352,
        "250": 10.8388,
        "500": 14.4886,
        "750": 19.629920000000002,
        "1000": 24.55952,
        "1500": 34.02056,
        "2000": 43.12768
    },
    "MA6": {
        "125": 1.7348400000000002,
        "250": 3.47284,
        "500": 4.572520000000001,
        "750": 5.969240000000001
    },
    "NDE": {
        "125": 0.3318,
        "250": 0.6636,
        "500": 0.96696,
        "750": 1.2861200000000002,
        "1000": 1.5831600000000001,
        "1500": 2.1456399999999998
    },
    "PA1": {
        "125": 0.13904000000000002,
        "250": 0.28124,
        "500": 0.45504,
        "750": 0.60672
    },
    "PA2": {
        "125": 0.27176,
        "250": 0.54668,
        "500": 0.8216,
        "750": 1.1091600000000001,
        "1000": 1.3809200000000001,
        "1500": 1.8991600000000002
    },
    "PAG": {
        "125": 0.13904000000000002,
        "250": 0.28124,
        "500": 0.45504,
        "750": 0.60672,
        "1000": 0.7520800000000001,
        "1500": 1.02384
    },
    "PAT": {
        "125": 0.13904000000000002,
        "250": 0.28124,
        "500": 0.42344,
        "750": 0.57196,
        "1000": 0.711,
        "1500": 0.9764400000000001
    },
    "PL2": {
        "125": 0.51824,
        "250": 1.03332,
        "500": 1.55472,
        "750": 2.1014,
        "1000": 2.61648,
        "1500": 3.59292
    },
    "S20": {
        "125": 2.1962,
        "250": 4.3228800000000005,
        "500": 6.2915600000000005,
        "750": 8.22232,
        "1000": 9.897120000000001,
        "1500": 12.63368
    },
    "S76": {
        "125": 0.68572,
        "250": 1.3746
    },
    "SF3": {
        "125": 1.19448,
        "250": 2.25624,
        "500": 2.99568,
        "750": 3.51392,
        "1000": 3.7098400000000002
    },
    "SFB": {
        "125": 1.19448,
        "250": 2.25624,
        "500": 2.99568,
        "750": 3.51392,
        "1000": 3.7098400000000002,
        "1500": 3.25796
    },
    "SH6": {
        "125": 0.99224,
        "250": 1.9813200000000002,
        "500": 2.97988,
        "750": 4.0258400000000005
    },
    "SU9": {
        "125": 4.87588,
        "250": 9.75492,
        "500": 12.84224,
        "750": 16.766959999999997,
        "1000": 20.47048,
        "1500": 27.447760000000002
    },
    "SWM": {
        "125": 0.6920400000000001,
        "250": 1.3840800000000002,
        "500": 2.08244,
        "750": 2.8124000000000002,
        "1000": 3.50444,
        "1500": 4.81268
    },
    "T20": {
        "125": 14.13152,
        "250": 26.09212,
        "500": 32.09928,
        "750": 41.854200000000006,
        "1000": 51.11616,
        "1500": 68.6352,
        "2000": 85.23468000000001,
        "2500": 101.19268000000001,
        "3000": 116.66404000000001,
        "3500": 131.75304
    },
    "TU3": {
        "125": 9.49896,
        "250": 15.84108,
        "500": 18.77356,
        "750": 23.6052,
        "1000": 28.26936
    },
    "TU5": {
        "125": 14.13152,
        "250": 26.09212,
        "500": 32.09928,
        "750": 41.854200000000006,
        "1000": 51.11616,
        "1500": 68.6352,
        "2000": 85.23468000000001,
        "2500": 101.19268000000001,
        "3000": 116.66404000000001,
        "3500": 131.75304
    },
    "YK2": {
        "125": 9.31568,
        "250": 16.624760000000002,
        "500": 18.97264,
        "750": 24.057080000000003,
        "1000": 28.955080000000002,
        "1500": 38.30236,
        "2000": 47.20092
    },
    "YK4": {
        "125": 1.9908000000000001,
        "250": 3.97844,
        "500": 5.239280000000001,
        "750": 6.8414
    },
    "YN2": {
        "125": 0.65728,
        "250": 1.31456,
        "500": 1.975,
        "750": 2.6702000000000004,
        "1000": 3.32748,
        "1500": 4.5693600000000005
    },
    "YN7": {
        "125": 1.7348400000000002,
        "250": 3.47284,
        "500": 5.220320000000001,
        "750": 7.05312,
        "1000": 8.787960000000002
    },
    "32F": {
        "125": 5.28352,
        "250": 10.8388,
        "500": 14.4886,
        "750": 19.629920000000002,
        "1000": 24.55952,
        "1500": 34.02056,
        "2000": 43.12768,
        "2500": 51.98832
    },
    "70F": {
        "125": 13.52796,
        "250": 27.04012,
        "500": 34.67468,
        "750": 45.82,
        "1000": 56.31120000000001,
        "1500": 75.99484,
        "2000": 94.50296,
        "2500": 112.18316,
        "3000": 129.22504,
        "3500": 145.74552000000003,
        "4000": 161.82992000000002,
        "4500": 177.53196000000003,
        "5000": 192.89904
    },
    "70M": {
        "125": 13.52796,
        "250": 27.04012,
        "500": 34.67468,
        "750": 45.82,
        "1000": 56.31120000000001,
        "1500": 75.99484,
        "2000": 94.50296,
        "2500": 112.18316,
        "3000": 129.22504,
        "3500": 145.74552000000003,
        "4000": 161.82992000000002,
        "4500": 177.53196000000003,
        "5000": 192.89904
    },
    "72A": {
        "125": 9.0692,
        "250": 18.615560000000002,
        "500": 24.91344,
        "750": 33.774080000000005,
        "1000": 42.27764,
        "1500": 58.59904,
        "2000": 74.31372,
        "2500": 89.62076,
        "3000": 104.61496000000001
    },
    "72M": {
        "125": 9.0692,
        "250": 18.615560000000002,
        "500": 24.91344,
        "750": 33.774080000000005,
        "1000": 42.27764,
        "1500": 58.59904,
        "2000": 74.31372,
        "2500": 89.62076,
        "3000": 104.61496000000001
    },
    "72S": {
        "125": 9.0692,
        "250": 18.615560000000002,
        "500": 24.91344,
        "750": 33.774080000000005,
        "1000": 42.27764,
        "1500": 58.59904,
        "2000": 74.31372,
        "2500": 89.62076,
        "3000": 104.61496000000001
    },
    "73A": {
        "125": 5.618480000000001,
        "250": 11.71728,
        "500": 15.67992,
        "750": 21.25732,
        "1000": 26.61036,
        "1500": 36.883520000000004,
        "2000": 46.77432,
        "2500": 56.406,
        "3000": 65.84808,
        "3500": 75.13532000000001,
        "4000": 84.29616
    },
    "73S": {
        "125": 5.618480000000001,
        "250": 11.71728,
        "500": 15.67992,
        "750": 21.25732,
        "1000": 26.61036,
        "1500": 36.883520000000004,
        "2000": 46.77432,
        "2500": 56.406,
        "3000": 65.84808,
        "3500": 75.13532000000001,
        "4000": 84.29616
    },
    "74C": {
        "125": 17.40528,
        "250": 35.742760000000004,
        "500": 52.4244,
        "750": 74.19048000000001,
        "1000": 95.82068000000001,
        "1500": 138.90412,
        "2000": 181.937,
        "2500": 225.00464000000002,
        "3000": 268.15444,
        "3500": 311.4022,
        "4000": 354.75424,
        "4500": 398.21372,
        "5000": 441.78696,
        "5500": 485.46764,
        "6000": 529.25576,
        "6500": 573.15132,
        "7000": 617.148,
        "7500": 661.24264
    },
    "74D": {
        "125": 16.66268,
        "250": 34.21332,
        "500": 50.180800000000005,
        "750": 71.01468000000001,
        "1000": 91.71584000000001,
        "1500": 132.95383999999999,
        "2000": 174.14128,
        "2500": 215.36664000000002,
        "3000": 256.66784,
        "3500": 298.06068,
        "4000": 339.5578,
        "4500": 381.1592,
        "5000": 422.86488,
        "5500": 464.67484,
        "6000": 506.58592000000004,
        "6500": 548.60128,
        "7000": 590.71144,
        "7500": 632.91956
    },
    "74J": {
        "125": 14.912040000000001,
        "250": 30.6204,
        "500": 44.90992000000001,
        "750": 63.55708,
        "1000": 82.08732,
        "1500": 118.99612,
        "2000": 155.86068,
        "2500": 192.75683999999998,
        "3000": 229.71936000000002,
        "3500": 266.7672,
        "4000": 303.90668,
        "4500": 341.14096,
        "5000": 378.46688,
        "5500": 415.87811999999997,
        "6000": 443.32272,
        "6500": 469.99944,
        "7000": 495.94936000000007,
        "7500": 521.20408
    },
    "74M": {
        "125": 14.912040000000001,
        "250": 30.6204,
        "500": 44.90992000000001,
        "750": 63.55708,
        "1000": 82.08732,
        "1500": 118.99612,
        "2000": 155.86068,
        "2500": 192.75683999999998,
        "3000": 229.71936000000002,
        "3500": 266.7672,
        "4000": 303.90668,
        "4500": 341.14096,
        "5000": 378.46688,
        "5500": 415.87811999999997,
        "6000": 443.32272,
        "6500": 469.99944,
        "7000": 495.94936000000007,
        "7500": 521.20408
    },
    "74R": {
        "125": 17.7118,
        "250": 36.36844,
        "500": 53.3408,
        "750": 75.48608,
        "1000": 97.49548000000001,
        "1500": 141.331,
        "2000": 185.11280000000002,
        "2500": 228.93568000000002,
        "3000": 272.83756,
        "3500": 316.8374,
        "4000": 360.94784000000004,
        "4500": 405.16888,
        "5000": 449.50052,
        "5500": 493.94592000000006,
        "6000": 538.4987600000001,
        "6500": 583.15904,
        "7000": 627.9236,
        "7500": 672.79244
    },
    "74T": {
        "125": 17.7118,
        "250": 36.36844,
        "500": 53.3408,
        "750": 75.48608,
        "1000": 97.49548000000001,
        "1500": 141.331,
        "2000": 185.11280000000002,
        "2500": 228.93568000000002,
        "3000": 272.83756,
        "3500": 316.8374,
        "4000": 360.94784000000004,
        "4500": 405.16888,
        "5000": 449.50052,
        "5500": 493.94592000000006,
        "6000": 538.4987600000001,
        "6500": 583.15904,
        "7000": 627.9236,
        "7500": 672.79244
    },
    "74X": {
        "125": 17.40528,
        "250": 35.742760000000004,
        "500": 52.4244,
        "750": 74.19048000000001,
        "1000": 95.82068000000001,
        "1500": 138.90412,
        "2000": 181.937,
        "2500": 225.00464000000002,
        "3000": 268.15444,
        "3500": 311.4022,
        "4000": 354.75424,
        "4500": 398.21372,
        "5000": 441.78696,
        "5500": 485.46764,
        "6000": 529.25576,
        "6500": 573.15132,
        "7000": 617.148,
        "7500": 661.24264
    },
    "75M": {
        "125": 7.27432,
        "250": 14.943640000000002,
        "500": 20.009120000000003,
        "750": 27.138080000000002,
        "1000": 33.97948,
        "1500": 47.11876,
        "2000": 59.77456000000001,
        "2500": 72.09855999999999,
        "3000": 84.17924000000001,
        "3500": 95.10968000000001
    },
    "76X": {
        "125": 9.0534,
        "250": 18.62188,
        "500": 26.0226,
        "750": 35.79332,
        "1000": 45.308080000000004,
        "1500": 63.841480000000004,
        "2000": 81.95144,
        "2500": 99.78016000000001,
        "3000": 117.4098,
        "3500": 134.88144,
        "4000": 152.22668,
        "4500": 169.47396000000003,
        "5000": 185.3024,
        "5500": 197.34832,
        "6000": 208.78752000000003,
        "6500": 219.64527999999999
    },
    "A28": {
        "125": 0.87848,
        "250": 1.75696,
        "500": 2.6386,
        "750": 3.5676400000000004,
        "1000": 4.44296,
        "1500": 6.10196
    },
    "A4F": {
        "125": 39.01652000000001,
        "250": 78.02988,
        "500": 101.02520000000001,
        "750": 132.90328,
        "1000": 162.98648,
        "1500": 219.64212,
        "2000": 273.1662,
        "2500": 324.532,
        "3000": 374.28304,
        "3500": 422.75112
    },
    "ACD": {
        "125": 0.20224,
        "250": 0.40132,
        "500": 0.5277200000000001,
        "750": 0.6920400000000001,
        "1000": 0.84372,
        "1500": 1.13128
    },
    "AN7": {
        "125": 3.9026000000000005,
        "250": 7.80204,
        "500": 10.27316,
        "750": 13.411040000000002,
        "1000": 16.37828,
        "1500": 21.95884,
        "2000": 27.22972,
        "2500": 32.282560000000004
    },
    "AR7": {
        "125": 3.92788,
        "250": 8.396120000000002,
        "500": 11.81524,
        "750": 16.03384,
        "1000": 20.12604,
        "1500": 28.05132,
        "2000": 35.7554
    },
    "AT3": {
        "125": 1.1376000000000002,
        "250": 2.2846800000000003,
        "500": 3.4538800000000003,
        "750": 4.69576,
        "1000": 5.88708,
        "1500": 8.17808
    },
    "ATF": {
        "125": 1.37144,
        "250": 2.81556,
        "500": 4.45244,
        "750": 6.307360000000001,
        "1000": 8.22548,
        "1500": 12.295560000000002,
        "2000": 16.72588
    },
    "B11": {
        "125": 5.6564000000000005,
        "250": 11.366520000000001,
        "500": 14.779320000000002,
        "750": 19.80056,
        "1000": 24.666960000000003,
        "1500": 34.19436,
        "2000": 43.652240000000006
    },
    "B12": {
        "125": 5.6564000000000005,
        "250": 11.366520000000001,
        "500": 14.779320000000002,
        "750": 19.80056,
        "1000": 24.666960000000003,
        "1500": 34.19436,
        "2000": 43.652240000000006
    },
    "B13": {
        "125": 5.6564000000000005,
        "250": 11.366520000000001,
        "500": 14.779320000000002,
        "750": 19.80056,
        "1000": 24.666960000000003,
        "1500": 34.19436,
        "2000": 43.652240000000006
    },
    "B14": {
        "125": 5.6564000000000005,
        "250": 11.366520000000001,
        "500": 14.779320000000002,
        "750": 19.80056,
        "1000": 24.666960000000003,
        "1500": 34.19436,
        "2000": 43.652240000000006
    },
    "B15": {
        "125": 5.6564000000000005,
        "250": 11.366520000000001,
        "500": 14.779320000000002,
        "750": 19.80056,
        "1000": 24.666960000000003,
        "1500": 34.19436,
        "2000": 43.652240000000006
    },
    "CCJ": {
        "125": 2.53748,
        "250": 5.0718000000000005,
        "500": 6.67708,
        "750": 8.718440000000001,
        "1000": 10.646040000000001,
        "1500": 14.27372,
        "2000": 17.69916,
        "2500": 20.982400000000002,
        "3000": 24.16452,
        "3500": 27.26132
    },
    "CD2": {
        "125": 0.67308,
        "250": 1.34616,
        "500": 2.0224
    },
    "CL4": {
        "125": 6.32316,
        "250": 12.64948,
        "500": 19.013720000000003,
        "750": 25.69712,
        "1000": 32.013960000000004,
        "1500": 43.95244,
        "2000": 55.284200000000006,
        "2500": 66.19568000000001,
        "3000": 76.79116,
        "3500": 87.14016000000001,
        "4000": 97.28376000000002,
        "4500": 107.25356
    },
    "CS5": {
        "125": 1.1692,
        "250": 2.34156,
        "500": 3.5202400000000003,
        "750": 4.7558,
        "1000": 5.925,
        "1500": 8.13384,
        "2000": 10.23208
    },
    "CVR": {
        "125": 2.4174,
        "250": 4.83796,
        "500": 7.271160000000001,
        "750": 9.8276,
        "1000": 12.245,
        "1500": 16.8112
    },
    "D10": {
        "125": 15.08268,
        "250": 30.65516,
        "500": 42.833800000000004,
        "750": 58.92136,
        "1000": 74.57916,
        "1500": 105.08896,
        "2000": 134.9004,
        "2500": 164.25048,
        "3000": 193.2656,
        "3500": 222.02476000000001,
        "4000": 250.58168000000003,
        "4500": 278.97112,
        "5000": 307.22152,
        "5500": 335.35184000000004,
        "6000": 363.38104000000004,
        "6500": 391.31860000000006,
        "7000": 419.17716,
        "7500": 446.9662
    },
    "D11": {
        "125": 14.327440000000001,
        "250": 29.12256,
        "500": 40.69132,
        "750": 55.97308,
        "1000": 70.85036,
        "1500": 99.83388000000001,
        "2000": 128.1538,
        "2500": 156.03764,
        "3000": 183.60232000000002,
        "3500": 210.92368000000002,
        "4000": 238.05228,
        "4500": 265.02288,
        "5000": 291.86076,
        "5500": 318.58488,
        "6000": 345.21104,
        "6500": 371.75188,
        "7000": 398.22004000000004,
        "7500": 424.61552
    },
    "D1C": {
        "125": 15.08268,
        "250": 30.65516,
        "500": 42.833800000000004,
        "750": 58.92136,
        "1000": 74.57916,
        "1500": 105.08896,
        "2000": 134.9004,
        "2500": 164.25048,
        "3000": 193.2656,
        "3500": 222.02476000000001,
        "4000": 250.58168000000003,
        "4500": 278.97112,
        "5000": 307.22152,
        "5500": 335.35184000000004,
        "6000": 363.38104000000004,
        "6500": 391.31860000000006,
        "7000": 419.17716,
        "7500": 446.9662
    },
    "D1Y": {
        "125": 15.08268,
        "250": 30.65516,
        "500": 42.833800000000004,
        "750": 58.92136,
        "1000": 74.57916,
        "1500": 105.08896,
        "2000": 134.9004,
        "2500": 164.25048,
        "3000": 193.2656,
        "3500": 222.02476000000001,
        "4000": 250.58168000000003,
        "4500": 278.97112,
        "5000": 307.22152,
        "5500": 335.35184000000004,
        "6000": 363.38104000000004,
        "6500": 391.31860000000006,
        "7000": 419.17716,
        "7500": 446.9662
    },
    "D3F": {
        "125": 0.7426,
        "250": 1.48204,
        "500": 2.39528,
        "750": 3.2042400000000004,
        "1000": 3.96896,
        "1500": 5.40676
    },
    "D8F": {
        "125": 12.59576,
        "250": 25.18836,
        "500": 32.33628,
        "750": 42.783240000000006,
        "1000": 52.636120000000005,
        "1500": 71.20428,
        "2000": 88.75808,
        "2500": 105.61352000000001,
        "3000": 121.9444,
        "3500": 137.86448000000001,
        "4000": 153.44328,
        "4500": 168.73452000000003,
        "5000": 183.77928,
        "5500": 198.60916
    },
    "D8X": {
        "125": 12.59576,
        "250": 25.18836,
        "500": 32.33628,
        "750": 42.783240000000006,
        "1000": 52.636120000000005,
        "1500": 71.20428,
        "2000": 88.75808,
        "2500": 105.61352000000001,
        "3000": 121.9444,
        "3500": 137.86448000000001,
        "4000": 153.44328,
        "4500": 168.73452000000003,
        "5000": 183.77928,
        "5500": 198.60916
    },
    "D8Y": {
        "125": 11.723600000000001,
        "250": 23.447200000000002,
        "500": 30.10216,
        "750": 39.825480000000006,
        "1000": 49.002120000000005,
        "1500": 66.28732000000001,
        "2000": 82.62768000000001,
        "2500": 98.31708,
        "3000": 113.51984000000002,
        "3500": 128.34024,
        "4000": 142.84148000000002,
        "4500": 157.07728,
        "5000": 171.0824,
        "5500": 184.88844
    },
    "D91": {
        "125": 5.17608,
        "250": 10.63024,
        "500": 14.22316,
        "750": 19.28232,
        "1000": 24.13924,
        "1500": 33.45808,
        "2000": 42.42932,
        "2500": 51.169880000000006
    },
    "D92": {
        "125": 5.24244,
        "250": 10.7598,
        "500": 14.396960000000002,
        "750": 19.51932,
        "1000": 24.433120000000002,
        "1500": 33.86572,
        "2000": 42.94756,
        "2500": 51.7924
    },
    "D94": {
        "125": 6.016640000000001,
        "250": 12.34928,
        "500": 16.526799999999998,
        "750": 22.404400000000003,
        "1000": 28.045,
        "1500": 38.87116,
        "2000": 49.296,
        "2500": 59.44908
    },
    "D95": {
        "125": 6.2094000000000005,
        "250": 12.747440000000001,
        "500": 17.06084,
        "750": 23.128040000000002,
        "1000": 28.95192,
        "1500": 40.128840000000004,
        "2000": 50.89496,
        "2500": 61.373520000000006
    },
    "D9S": {
        "125": 5.60268,
        "250": 11.5024,
        "500": 15.39236,
        "750": 20.86864,
        "1000": 26.123720000000002,
        "1500": 36.20728,
        "2000": 45.91796,
        "2500": 55.375840000000004
    },
    "DC6": {
        "125": 2.6386,
        "250": 5.280360000000001,
        "500": 8.532,
        "750": 11.41076,
        "1000": 14.12836,
        "1500": 19.253880000000002,
        "2000": 24.10764,
        "2500": 28.774960000000004,
        "3000": 33.30008,
        "3500": 37.717760000000006,
        "4000": 42.043800000000005,
        "4500": 46.29084
    },
    "DC8": {
        "125": 12.59576,
        "250": 25.18836,
        "500": 32.33628,
        "750": 42.783240000000006,
        "1000": 52.636120000000005,
        "1500": 71.20428,
        "2000": 88.75808,
        "2500": 105.61352000000001,
        "3000": 121.9444,
        "3500": 137.86448000000001,
        "4000": 153.44328,
        "4500": 168.73452000000003,
        "5000": 183.77928,
        "5500": 198.60916
    },
    "DF2": {
        "125": 1.85176,
        "250": 3.7066800000000004,
        "500": 4.87904,
        "750": 6.37056,
        "1000": 7.77992,
        "1500": 10.43116,
        "2000": 12.93388,
        "2500": 15.335480000000002,
        "3000": 17.65808
    },
    "DFL": {
        "125": 1.85176,
        "250": 3.7066800000000004,
        "500": 4.87904,
        "750": 6.37056,
        "1000": 7.77992,
        "1500": 10.43116,
        "2000": 12.93388,
        "2500": 15.335480000000002,
        "3000": 17.65808,
        "3500": 19.92064,
        "4000": 22.13264,
        "4500": 24.30356,
        "5000": 26.43972
    },
    "DHB": {
        "125": 0.21804,
        "250": 0.43292,
        "500": 0.70152,
        "750": 0.93536
    },
    "DHO": {
        "125": 0.2528,
        "250": 0.5087600000000001,
        "500": 0.8184400000000001,
        "750": 1.09652
    },
    "DHS": {
        "125": 0.2528,
        "250": 0.5087600000000001,
        "500": 0.8184400000000001,
        "750": 1.09652
    },
    "F21": {
        "125": 4.87588,
        "250": 9.75492,
        "500": 14.662400000000002,
        "750": 19.81636,
        "1000": 24.685920000000003
    },
    "F22": {
        "125": 4.87588,
        "250": 9.75492,
        "500": 14.662400000000002,
        "750": 19.81636,
        "1000": 24.685920000000003
    },
    "F23": {
        "125": 4.87588,
        "250": 9.75492,
        "500": 14.662400000000002,
        "750": 19.81636,
        "1000": 24.685920000000003
    },
    "F24": {
        "125": 4.87588,
        "250": 9.75492,
        "500": 14.662400000000002,
        "750": 19.81636,
        "1000": 24.685920000000003
    },
    "F27": {
        "125": 1.8833600000000001,
        "250": 3.76356,
        "500": 5.659560000000001,
        "750": 7.647200000000001,
        "1000": 9.5274,
        "1500": 13.082400000000002,
        "2000": 16.45412
    },
    "FK7": {
        "125": 1.8833600000000001,
        "250": 3.76356,
        "500": 5.659560000000001,
        "750": 7.647200000000001,
        "1000": 9.5274
    },
    "GRG": {
        "125": 0.31284,
        "250": 0.62568,
        "500": 1.00804,
        "750": 1.34932,
        "1000": 1.67164,
        "1500": 2.27836
    },
    "GRM": {
        "125": 0.48664,
        "250": 0.9764400000000001,
        "500": 1.5768400000000002,
        "750": 2.10772,
        "1000": 2.6101600000000005,
        "1500": 3.5581600000000004
    },
    "GRS": {
        "125": 1.75696,
        "250": 3.5107600000000003,
        "500": 5.2772,
        "750": 7.13212,
        "1000": 8.88592,
        "1500": 12.20076,
        "2000": 15.348120000000002
    },
    "HEC": {
        "125": 0.10112,
        "250": 0.20224,
        "500": 0.32864,
        "750": 0.43924
    },
    "HS7": {
        "125": 1.79172,
        "250": 3.58028,
        "500": 5.38464,
        "750": 7.277480000000001,
        "1000": 9.066040000000001,
        "1500": 12.447239999999999
    },
    "IL6": {
        "125": 31.315600000000003,
        "250": 39.974,
        "500": 44.04724,
        "750": 56.49448,
        "1000": 68.73948,
        "1500": 92.24672,
        "2000": 115.45692,
        "2500": 139.277,
        "3000": 162.99912,
        "3500": 186.74968,
        "4000": 210.60452,
        "4500": 234.61736000000002,
        "5000": 258.83244
    },
    "IL8": {
        "125": 4.97384,
        "250": 9.94768,
        "500": 14.95312,
        "750": 20.21136,
        "1000": 25.17888,
        "1500": 34.5704,
        "2000": 43.4816,
        "2500": 52.06416,
        "3000": 60.400240000000004,
        "3500": 68.5404
    },
    "ILW": {
        "125": 29.034080000000003,
        "250": 54.51948,
        "500": 66.35683999999999,
        "750": 85.44324,
        "1000": 103.648,
        "1500": 138.14572,
        "2000": 170.85488,
        "2500": 202.3032,
        "3000": 232.79404,
        "3500": 262.517,
        "4000": 291.61111999999997
    },
    "JST": {
        "125": 0.7931600000000001,
        "250": 1.58948,
        "500": 2.3858,
        "750": 3.22636,
        "1000": 4.01952,
        "1500": 5.517360000000001
    },
    "L10": {
        "125": 14.706640000000002,
        "250": 30.78472,
        "500": 43.013920000000006,
        "750": 59.171,
        "1000": 74.89832000000001,
        "1500": 105.53452,
        "2000": 135.47236,
        "2500": 164.94567999999998,
        "3000": 194.08720000000002,
        "3500": 222.9696,
        "4000": 251.6466,
        "4500": 280.15612,
        "5000": 308.52660000000003,
        "5500": 336.777,
        "6000": 364.92628
    },
    "L11": {
        "125": 14.706640000000002,
        "250": 30.78472,
        "500": 43.013920000000006,
        "750": 59.171,
        "1000": 74.89832000000001,
        "1500": 105.53452,
        "2000": 135.47236,
        "2500": 164.94567999999998,
        "3000": 194.08720000000002,
        "3500": 222.9696,
        "4000": 251.6466
    },
    "L12": {
        "125": 14.706640000000002,
        "250": 30.78472,
        "500": 43.013920000000006,
        "750": 59.171,
        "1000": 74.89832000000001,
        "1500": 105.53452,
        "2000": 135.47236,
        "2500": 164.94567999999998,
        "3000": 194.08720000000002,
        "3500": 222.9696,
        "4000": 251.6466,
        "4500": 280.15612
    },
    "L15": {
        "125": 15.92008,
        "250": 32.02028,
        "500": 41.91424000000001,
        "750": 55.7424,
        "1000": 69.09972,
        "1500": 95.116,
        "2000": 120.77204,
        "2500": 146.42808000000002,
        "3000": 172.27372,
        "3500": 198.41956,
        "4000": 224.9446,
        "4500": 251.89624,
        "5000": 279.31556,
        "5500": 307.22784,
        "6000": 335.65204000000006
    },
    "L1F": {
        "125": 14.706640000000002,
        "250": 30.78472,
        "500": 43.013920000000006,
        "750": 59.171,
        "1000": 74.89832000000001,
        "1500": 105.53452,
        "2000": 135.47236,
        "2500": 164.94567999999998,
        "3000": 194.08720000000002,
        "3500": 222.9696,
        "4000": 251.6466,
        "4500": 280.15612,
        "5000": 308.52660000000003,
        "5500": 336.777,
        "6000": 364.92628
    },
    "L49": {
        "125": 4.68312,
        "250": 9.36308,
        "500": 15.133239999999999,
        "750": 20.2398,
        "1000": 25.061960000000003,
        "1500": 34.15328,
        "2000": 42.76428,
        "2500": 51.04032,
        "3000": 59.069880000000005,
        "3500": 66.90352
    },
    "LOE": {
        "125": 5.6564000000000005,
        "250": 11.309640000000002,
        "500": 17.000799999999998,
        "750": 22.97636,
        "1000": 28.626440000000002,
        "1500": 39.30408,
        "2000": 49.43504,
        "2500": 59.18996,
        "3000": 68.66680000000001
    },
    "LOF": {
        "125": 5.6564000000000005,
        "250": 11.309640000000002,
        "500": 17.000799999999998,
        "750": 22.97636,
        "1000": 28.626440000000002,
        "1500": 39.30408,
        "2000": 49.43504,
        "2500": 59.18996,
        "3000": 68.66680000000001
    },
    "LOM": {
        "125": 5.6564000000000005,
        "250": 11.309640000000002,
        "500": 17.000799999999998,
        "750": 22.97636,
        "1000": 28.626440000000002,
        "1500": 39.30408,
        "2000": 49.43504,
        "2500": 59.18996,
        "3000": 68.66680000000001
    },
    "LRJ": {
        "125": 1.3272,
        "250": 2.6544,
        "500": 3.4918,
        "750": 4.55988,
        "1000": 5.56792,
        "1500": 7.46708
    },
    "M1M": {
        "125": 15.08268,
        "250": 30.16536,
        "500": 40.78928,
        "750": 55.710800000000006,
        "1000": 70.16148,
        "1500": 98.1654,
        "2000": 125.37932,
        "2500": 152.06236,
        "3000": 178.35356,
        "3500": 204.34456,
        "4000": 230.08908000000002,
        "4500": 255.62820000000002,
        "5000": 280.99667999999997,
        "5500": 306.21348000000006,
        "6000": 331.30388,
        "6500": 356.2742,
        "7000": 381.14340000000004
    },
    "M81": {
        "125": 6.272600000000001,
        "250": 12.64316,
        "500": 17.27572,
        "750": 23.70948,
        "1000": 29.93468,
        "1500": 41.99956,
        "2000": 53.72632,
        "2500": 65.22556,
        "3000": 76.55732,
        "3500": 87.75952000000001
    },
    "MBH": {
        "125": 0.40448,
        "250": 0.81212,
        "500": 1.185,
        "750": 1.57052,
        "1000": 1.9370800000000001,
        "1500": 2.62596
    },
    "MD9": {
        "125": 0.5087600000000001,
        "250": 1.0175200000000002
    },
    "MIH": {
        "125": 1.7506400000000002,
        "250": 3.4981200000000006,
        "500": 5.10972,
        "750": 6.778200000000001,
        "1000": 8.35504,
        "1500": 11.32544
    },
    "MU2": {
        "125": 0.5846,
        "250": 1.1692,
        "500": 1.89284,
        "750": 2.5311600000000003,
        "1000": 3.13156,
        "1500": 4.26916
    },
    "ND2": {
        "125": 0.73628,
        "250": 1.47572,
        "500": 2.2183200000000003,
        "750": 2.99568,
        "1000": 3.73196,
        "1500": 5.125520000000001
    },
    "NDC": {
        "125": 0.9164000000000001,
        "250": 1.8328000000000002,
        "500": 2.4142400000000004,
        "750": 3.1505199999999998,
        "1000": 3.8488800000000003
    },
    "NDH": {
        "125": 0.64464,
        "250": 1.2861200000000002,
        "500": 1.8802,
        "750": 2.49324,
        "1000": 3.0746800000000003,
        "1500": 4.1680399999999995
    },
    "PL6": {
        "125": 0.28756,
        "250": 0.57828,
        "500": 0.869,
        "750": 1.17236
    },
    "PN6": {
        "125": 0.14536000000000002,
        "250": 0.29388,
        "500": 0.474,
        "750": 0.632,
        "1000": 0.78368,
        "1500": 1.0680800000000001
    },
    "S58": {
        "125": 0.8500400000000001,
        "250": 1.69692,
        "500": 2.47744,
        "750": 3.2864
    },
    "S61": {
        "125": 1.2482,
        "250": 2.4964
    },
    "SFF": {
        "125": 1.19448,
        "250": 2.25624,
        "500": 2.99568,
        "750": 3.51392,
        "1000": 3.7098400000000002,
        "1500": 3.25796
    },
    "SH3": {
        "125": 0.92588,
        "250": 1.85176,
        "500": 2.7871200000000003,
        "750": 3.76356
    },
    "SHB": {
        "125": 7.021520000000001,
        "250": 14.0462,
        "500": 21.111960000000003,
        "750": 28.534800000000004,
        "1000": 35.54684,
        "1500": 48.806200000000004,
        "2000": 61.38932,
        "2500": 73.50476,
        "3000": 85.27260000000001,
        "3500": 96.76236,
        "4000": 108.0246,
        "4500": 119.09724,
        "5000": 130.00556,
        "5500": 140.76536000000002
    },
    "SHS": {
        "125": 0.48664,
        "250": 0.9764400000000001,
        "500": 1.46624,
        "750": 1.9813200000000002
    },
    "SSC": {
        "125": 73.00548,
        "250": 146.01096,
        "500": 187.44488,
        "750": 247.9968,
        "1000": 305.12644,
        "1500": 412.7592,
        "2000": 514.5112,
        "2500": 612.2184,
        "3000": 706.892,
        "3500": 799.1671600000001
    },
    "T2F": {
        "125": 14.13152,
        "250": 26.09212,
        "500": 32.09928,
        "750": 41.854200000000006,
        "1000": 51.11616,
        "1500": 68.6352,
        "2000": 85.23468000000001,
        "2500": 101.19268000000001,
        "3000": 116.66404000000001,
        "3500": 131.75304
    },
    "VCV": {
        "125": 5.463640000000001,
        "250": 10.92412,
        "500": 16.41936,
        "750": 22.19268,
        "1000": 27.64684,
        "1500": 37.96108,
        "2000": 47.7476,
        "2500": 57.17072,
        "3000": 66.32208,
        "3500": 75.25856,
        "4000": 84.02124,
        "4500": 92.63224000000001,
        "5000": 101.11368
    },
    "WWP": {
        "125": 1.41884,
        "250": 2.83768,
        "500": 3.73512,
        "750": 4.87588,
        "1000": 5.9534400000000005,
        "1500": 7.98216
    },
    "YS1": {
        "125": 1.71904,
        "250": 3.44124,
        "500": 5.17292,
        "750": 6.98992,
        "1000": 8.708960000000001
    }
}